891104 255739 525
925679 436161 525
892562 639540 525
839660 892940 445
364078 800092 509
812689 997781 525
40276 132183 354
594083 830746 509
611059 576038 434
535804 596298 452
348984 44259 443
803281 459082 509
71326 620133 470
695216 390461 509
667951 765661 504
557531 760317 509
695767 823245 504
465125 729341 509
342650 291586 384
753931 373219 509
898997 65996 525
986382 716784 525
111871 596761 470
426090 750022 509
251111 251774 319
824163 33917 509
150588 204014 383
445193 394693 449
916707 259649 525
339106 505592 449
73566 825793 509
559282 185300 470
387329 324944 441
545904 669656 509
678158 721638 504
390424 442545 449
539073 825336 509
1824 624816 470
850614 876989 432
343203 298344 384
402849 173888 443
253790 902565 525
110753 756212 509
300513 253047 407
8757 842444 525
717090 746681 424
173804 792742 509
585516 65339 470
839315 12174 525
743226 888875 525
623707 403964 470
622558 85629 470
672010 962356 525
241594 135088 443
133695 512217 470
773207 868356 525
65805 979825 525
567551 230463 470
235613 849951 525
452014 640601 509
459520 759751 509
280219 377216 441
556622 411853 470
359000 270198 441
848338 419126 525
182913 402929 443
699238 362340 509
628781 501675 509
844932 667057 525
925749 475658 525
230341 779754 509
317808 354239 441
796899 900449 525
550152 375935 470
940980 2699 525
630301 307503 509
603913 217509 470
489802 284561 449
851604 406681 525
521059 344659 470
560341 518080 452
210744 977776 525
528804 725833 509
862679 342705 525
971830 667886 525
464056 984754 525
66177 423870 449
85795 237549 443
501389 713954 509
316605 650622 509
393850 77820 443
256761 827114 509
438821 373495 449
821105 138919 509
54461 526229 470
310557 339916 384
151469 441993 449
789960 217581 509
965797 707615 525
42711 911202 525
562808 8625 470
297638 870083 525
384900 808957 509
822240 114611 509
25774 926287 525
512064 97155 470
220227 689988 509
180032 132101 383
16219 523307 470
748084 862551 525
405899 190101 443
605606 757603 509
151371 876081 525
582456 663881 509
715570 452813 509
439371 114476 449
411352 524354 470
386398 604719 470
132449 799598 509
324923 441391 449
864739 139857 525
4777 115967 354
508846 7116 449
150809 596368 470
479305 951306 525
694516 121967 509
801678 536677 509
894039 534224 525
238428 763766 509
684528 59805 509
87774 341309 443
157968 446012 449
757688 592352 509
939603 626148 525
531541 76387 470
345318 599314 470
272664 450843 449
373350 873589 525
829714 268447 509
645388 876606 525
525469 388507 470
280593 90531 443
236782 864117 525
50255 708250 509
687620 876564 525
647427 235233 509
687664 910405 525
997144 455681 525
334560 312105 384
10718 339251 443
621981 942053 525
143822 679167 509
662416 271104 509
829215 946776 525
958574 896327 507
141405 883485 525
886755 292419 525
175618 785665 509
354221 546591 470
502329 385543 449
883007 2806 525
41374 605357 470
482690 403015 449
364910 547248 470
21703 486668 449
675675 426677 509
305244 357661 441
253697 85936 443
484174 469774 413
441787 932210 525
879692 422409 525
778317 672741 504
168730 970063 525
98724 987056 525
523377 270184 470
854797 163607 525
907035 30482 525
862414 135301 525
358986 1981 443
903964 590907 525
152090 101933 375
19839 871947 525
549431 39687 470
460417 898321 525
575075 569581 377
164817 170610 352
704260 538372 509
743235 878791 525
244648 872408 525
723981 482771 509
105840 80799 341
23730 102976 351
433734 689594 509
167678 1778 383
761973 297773 509
76353 420064 449
129106 639224 509
597400 356626 470
581163 919324 525
851731 483298 525
204913 432018 449
164487 661700 509
163164 203126 365
599283 827284 509
383207 493498 449
960352 586905 525
115875 734993 509
423275 187994 449
647877 55925 509
2424 661314 509
720685 288642 509
779878 351798 509
824044 594932 509
526475 781310 509
508094 400344 449
685278 895689 525
840609 775164 525
174125 179978 347
981070 785460 525
238633 88247 443
649009 806892 504
785424 789979 406
381794 121692 443
879364 346379 525
175999 901257 525
985354 45202 525
379073 687083 509
634327 428580 509
17378 959237 525
637885 744005 504
981055 191624 525
447884 563560 470
338419 995472 525
969312 437402 525
698333 542693 509
289574 971738 525
363035 767365 509
330560 284236 389
969227 629750 525
701640 136428 509
320384 437327 449
775753 751700 468
373810 250654 441
908438 426688 525
962909 111571 525
753224 765382 380
511202 413941 444
730143 260879 509
943790 555224 525
960610 436376 525
587143 975197 525
705632 938376 525
878751 867695 432
