520996 165257
930796 895845
451052 675657
946355 319049
480347 409135
145556 597122
941348 515387
459047 128218
562923 406962
318470 617992
465708 353860
404237 44319
875042 334457
834045 496345
93506 880283
945241 219876
547045 629055
786314 474260
732297 867559
967057 333918
328140 722073
691271 289891
284430 385344
214314 991468
324094 110005
801943 979959
799159 904068
947784 327443
47488 768385
908031 496989
563128 472420
362722 141214
276987 573969
908780 605406
908682 532376
961319 663726
302011 427094
550315 32939
728551 689641
933468 965166
389841 429182
878274 782955
409444 736481
145998 491104
138075 721878
743228 54691
422424 322247
82568 360796
162411 198925
614441 760147
832889 812300
323602 516845
838718 920213
885118 51207
417200 305209
345010 264920
891764 521133
892313 746140
814707 212343
809761 86207
317312 75608
27719 740487
915941 357542
587299 595966
143419 684303
41277 807646
449366 237549
857389 248933
851466 878555
954643 604143
708218 664164
765232 313459
748301 62802
549253 740108
106742 160448
249962 186676
554349 321127
541757 598069
684828 725665
128550 627234
935856 123697
999928 532996
48434 445739
154848 726961
8768 459949
540150 565625
220382 380679
617381 803194
784404 926871
956348 313576
728081 974155
829662 94185
823533 431236
638249 29311
513066 98541
397899 6879
272250 543622
969034 838423
631733 596832
166011 206545
899111 404252
339462 151480
20334 808445
741236 231213
365073 430788
166101 610760
925243 919939
113741 549396
973486 352242
648225 521864
587453 107147
307563 294109
696304 332916
216189 395557
946878 564863
628913 464577
757376 590164
37314 547993
240046 106446
679121 745478
873928 371371
534620 955818
682408 665410
489021 981719
898813 65548
988983 945056
954825 765220
611815 818836
391528 173776
604427 379281
275035 1355
928162 830113
853003 911761
960253 372146
209752 865193
377939 574989
304218 412159
402846 302776
816072 3612
680101 363480
340348 316640
510044 291212
667246 308401
764748 381525
943183 967359
83277 548341
704544 529522
534337 900996
459942 135505
515534 108431
248142 43012
24924 119134
993179 978754
283920 113368
384408 76591
81473 455282
711547 932390
814334 861260
428449 192495
12285 908365
349282 953978
836776 346397
79961 966420
290405 822167
493985 292857
806949 153068
731639 947668
545214 667908
478421 574380
436831 901253
678479 194042
949135 17983
1133 543752
835594 503699
701286 521311
362254 334464
983662 794507
716901 684697
319106 639425
592365 765426
50891 975342
420064 437318
407683 424943
100484 821440
570419 791000
271807 793617
263320 987846
534010 1511
45441 916417
524988 47093
737247 650358
746921 300047
767353 313921
825062 952921
942440 693478
305390 966363
495404 571719
382961 536751
801283 123974
991666 489344
255326 561714
529996 649218
818752 298081
542270 790318
11130 62018
248368 127551
180827 866586
179292 322366
69059 380448
652700 178584
944144 134899
552082 56222
273301 271946
201767 655392
854515 467872
440690 599374
677837 509404
392404 843916
579744 93205
88721 650294
661170 695517
482518 108659
899995 874170
295371 416611
663897 912838
120332 383716
756571 411097
586178 791769
38735 707569
96123 412631
477106 871730
363635 330257
377942 877855
498161 275954
63636 866792
831795 268071
425923 178462
924536 508286
145912 316154
26915 178325
45820 386223
989181 689250
66784 736846
811107 123471
862485 983877
125617 418606
438930 367239
574531 236942
402936 881796
175959 711330
766506 168058
218556 211998
797088 931335
911727 866651
535629 710453
762716 337588
417043 825245
369569 756153
568805 582752
748356 645666
955686 996949
215346 37498
571415 833703
96250 768606
145106 666062
232467 536429
887262 80124
379287 757615
443599 486517
78000 365859
678689 954524
257789 790859
693295 443534
548375 238399
563765 552874
717376 17074
387643 675901
938949 840217
451097 509006
876586 171579
824103 551936
756770 323936
309869 619954
